Assignment 06 - EDA
…
FB: 14 columns/variables BUT X1 looks like it doesnt matter.

So, 13 variables.

Lets look at where they come from. country is the country of origin:

MyWineData %>%
  group_by (country)

## # A tibble: 129,971 x 14
## # Groups:   country [44]
##       X1 country description designation points price province region_1
##    <dbl> <chr>   <chr>       <chr>        <dbl> <dbl> <chr>    <chr>   
##  1     0 Italy   Aromas inc~ Vulk Bian~     87    NA Sicily ~ Etna    
##  2     1 Portug~ This is ri~ Avidagos        87    15 Douro    <NA>    
##  3     2 US      Tart and s~ <NA>            87    14 Oregon   Willame~
##  4     3 US      Pineapple ~ Reserve La~     87    13 Michigan Lake Mi~
##  5     4 US      Much like ~ Vintner's ~     87    65 Oregon   Willame~
##  6     5 Spain   Blackberry~ Ars In Vit~     87    15 Norther~ Navarra 
##  7     6 Italy   Here's a b~ Belsito         87    16 Sicily ~ Vittoria
##  8     7 France  This dry a~ <NA>            87    24 Alsace   Alsace  
##  9     8 Germany Savory dri~ Shine           87    12 Rheinhe~ <NA>    
## 10     9 France  This has g~ Les Natures     87    27 Alsace   Alsace  
## # ... with 129,961 more rows, and 6 more variables: region_2 <chr>,
## #   taster_name <chr>, taster_twitter_handle <chr>, title <chr>,
## #   variety <chr>, winery <chr>

FB: There are 8 unique countries whey is US listed 3 times???

FB: KNIT CHECK POINT - WORKS!

MyWineData %>%
  select(country) %>%
  unique

## # A tibble: 44 x 1
##    country  
##    <chr>    
##  1 Italy    
##  2 Portugal 
##  3 US       
##  4 Spain    
##  5 France   
##  6 Germany  
##  7 Argentina
##  8 Chile    
##  9 Australia
## 10 Austria  
## # ... with 34 more rows
…
FB: Try another way to get this list of countries

summary (MyWineData$country)

##    Length     Class      Mode 
##    129971 character character

FB=: I would need to assign this to a vector and find the unique values.

FB: Need to check for NAs!

MyWineData %>% filter (is.na(country))

## # A tibble: 63 x 14
##       X1 country description designation points price province region_1
##    <dbl> <chr>   <chr>       <chr>        <dbl> <dbl> <chr>    <chr>   
##  1   913 <NA>    Amber in c~ Asureti Va~     87    30 <NA>     <NA>    
##  2  3131 <NA>    Soft, frui~ Partager        83    NA <NA>     <NA>    
##  3  4243 <NA>    Violet-red~ Red Natura~     88    18 <NA>     <NA>    
##  4  9509 <NA>    This mouth~ Theopetra ~     92    28 <NA>     <NA>    
##  5  9750 <NA>    This orang~ Orange Nik~     89    28 <NA>     <NA>    
##  6 11150 <NA>    A blend of~ <NA>            89    20 <NA>     <NA>    
##  7 11348 <NA>    Light and ~ Partager        82    NA <NA>     <NA>    
##  8 14030 <NA>    This Furmi~ Mrga           88    25 <NA>     <NA>    
##  9 16000 <NA>    Jumpy, jam~ Valle de l~     86    40 <NA>     <NA>    
## 10 16749 <NA>    Winemaker:~ Cape Winem~     91    NA <NA>     <NA>    
## # ... with 53 more rows, and 6 more variables: region_2 <chr>,
## #   taster_name <chr>, taster_twitter_handle <chr>, title <chr>,
## #   variety <chr>, winery <chr>

FB: 63 rows with country = NA

FB: I can see other NAs in region_1, region_2, and designation columns

FB: How many varities of wine?

MyWineData %>%
  select(variety) %>%
  unique

## # A tibble: 708 x 1
##    variety           
##    <chr>             
##  1 White Blend       
##  2 Portuguese Red    
##  3 Pinot Gris        
##  4 Riesling          
##  5 Pinot Noir        
##  6 Tempranillo-Merlot
##  7 Frappato          
##  8 Gewrztraminer    
##  9 Cabernet Sauvignon
## 10 Nerello Mascalese 
## # ... with 698 more rows

FB: 708 varieties of wine were tested!

FB: Varieties by Country?

MyWineData %>%
  group_by (country) %>%
  unique %>%
  group_by (variety)

## # A tibble: 129,971 x 14
## # Groups:   variety [708]
##       X1 country description designation points price province region_1
##    <dbl> <chr>   <chr>       <chr>        <dbl> <dbl> <chr>    <chr>   
##  1     0 Italy   Aromas inc~ Vulk Bian~     87    NA Sicily ~ Etna    
##  2     1 Portug~ This is ri~ Avidagos        87    15 Douro    <NA>    
##  3     2 US      Tart and s~ <NA>            87    14 Oregon   Willame~
##  4     3 US      Pineapple ~ Reserve La~     87    13 Michigan Lake Mi~
##  5     4 US      Much like ~ Vintner's ~     87    65 Oregon   Willame~
##  6     5 Spain   Blackberry~ Ars In Vit~     87    15 Norther~ Navarra 
##  7     6 Italy   Here's a b~ Belsito         87    16 Sicily ~ Vittoria
##  8     7 France  This dry a~ <NA>            87    24 Alsace   Alsace  
##  9     8 Germany Savory dri~ Shine           87    12 Rheinhe~ <NA>    
## 10     9 France  This has g~ Les Natures     87    27 Alsace   Alsace  
## # ... with 129,961 more rows, and 6 more variables: region_2 <chr>,
## #   taster_name <chr>, taster_twitter_handle <chr>, title <chr>,
## #   variety <chr>, winery <chr>

FB: This didnt give me what I was looking forIts giving me ALL the rows!

FB: What was the maximun score?

MyWineData %>%
  group_by (points)

## # A tibble: 129,971 x 14
## # Groups:   points [21]
##       X1 country description designation points price province region_1
##    <dbl> <chr>   <chr>       <chr>        <dbl> <dbl> <chr>    <chr>   
##  1     0 Italy   Aromas inc~ Vulk Bian~     87    NA Sicily ~ Etna    
##  2     1 Portug~ This is ri~ Avidagos        87    15 Douro    <NA>    
##  3     2 US      Tart and s~ <NA>            87    14 Oregon   Willame~
##  4     3 US      Pineapple ~ Reserve La~     87    13 Michigan Lake Mi~
##  5     4 US      Much like ~ Vintner's ~     87    65 Oregon   Willame~
##  6     5 Spain   Blackberry~ Ars In Vit~     87    15 Norther~ Navarra 
##  7     6 Italy   Here's a b~ Belsito         87    16 Sicily ~ Vittoria
##  8     7 France  This dry a~ <NA>            87    24 Alsace   Alsace  
##  9     8 Germany Savory dri~ Shine           87    12 Rheinhe~ <NA>    
## 10     9 France  This has g~ Les Natures     87    27 Alsace   Alsace  
## # ... with 129,961 more rows, and 6 more variables: region_2 <chr>,
## #   taster_name <chr>, taster_twitter_handle <chr>, title <chr>,
## #   variety <chr>, winery <chr>

FB: Looks like 87 is the top score. Seems like Ive seen higher in the wine storeI looked and I saw some 90s. Why didnt my code chunk put them at the top?

MyWineData %>%
  select (points)

## # A tibble: 129,971 x 1
##    points
##     <dbl>
##  1     87
##  2     87
##  3     87
##  4     87
##  5     87
##  6     87
##  7     87
##  8     87
##  9     87
## 10     87
## # ... with 129,961 more rows
FB: Still no showing me the highest points!

#MyWineData %>%  
  #select maximun(points)

FB: Finding the max points using Base R

print (max(MyWineData$points))

## [1] 100

MyWineData %>%
  filter (country=="US")

## # A tibble: 54,504 x 14
##       X1 country description designation points price province region_1
##    <dbl> <chr>   <chr>       <chr>        <dbl> <dbl> <chr>    <chr>   
##  1     2 US      Tart and s~ <NA>            87    14 Oregon   Willame~
##  2     3 US      Pineapple ~ Reserve La~     87    13 Michigan Lake Mi~
##  3     4 US      Much like ~ Vintner's ~     87    65 Oregon   Willame~
##  4    10 US      Soft, supp~ Mountain C~     87    19 Califor~ Napa Va~
##  5    12 US      Slightly r~ <NA>            87    34 Califor~ Alexand~
##  6    14 US      Building o~ <NA>            87    12 Califor~ Central~
##  7    19 US      Red fruit ~ <NA>            87    32 Virginia Virginia
##  8    20 US      Ripe aroma~ Vin de Mai~     87    23 Virginia Virginia
##  9    21 US      A sleek mi~ <NA>            87    20 Oregon   Oregon  
## 10    23 US      This wine ~ Signature ~     87    22 Califor~ Paso Ro~
## # ... with 54,494 more rows, and 6 more variables: region_2 <chr>,
## #   taster_name <chr>, taster_twitter_handle <chr>, title <chr>,
## #   variety <chr>, winery <chr>

FB: REALLY! 54,504 wines were rated from the US????

MyWineData %>%
  group_by(country) %>%
  summarize(n = n())

## # A tibble: 44 x 2
##    country                    n
##    <chr>                  <int>
##  1 <NA>                      63
##  2 Argentina               3800
##  3 Armenia                    2
##  4 Australia               2329
##  5 Austria                 3345
##  6 Bosnia and Herzegovina     2
##  7 Brazil                    52
##  8 Bulgaria                 141
##  9 Canada                   257
## 10 Chile                   4472
## # ... with 34 more rows
…
